nowMT: {"content":[{"id":"ff3c94e3-2cda-48be-8c31-28b80dbb63d6","legacyId":0,"subject":"019网络中心1测试会议","username":"019网络中心1","accountName":"019-1","scheduleStartTime":"2023-08-09 09:00:00 UTC","duration":60,"category":"BASE","organizationName":"中国科学院","active":false,"accessCode":"9491073","mainServiceZoneName":"Default","mainServiceZoneId":"8ab9e3c4-69ce-04e5-0169-ce058e5d1213","type":"AVC","securityLevel":"INTERNAL","showSecurityLevel":false,"status":"APPROVED_COMPLETED","shareFlow":false,"enableRecord":false,"vdc":false},{"id":"5b611402-8351-4db4-8788-20a829155aa0","legacyId":0,"subject":"009南海海洋1的会议","username":"009南海海洋1","accountName":"009-1","scheduleStartTime":"2023-08-10 05:30:00 UTC","duration":420,"category":"BASE","organizationName":"中国科学院","active":false,"accessCode":"9957995","mainServiceZoneName":"Default","mainServiceZoneId":"8ab9e3c4-69ce-04e5-0169-ce058e5d1213","type":"AVC","securityLevel":"CONFIDENTAIL","showSecurityLevel":false,"status":"APPROVED_COMPLETED","shareFlow":true,"enableRecord":false,"vdc":false}],"pageable":{"sort":{"unsorted":true,"sorted":false,"empty":true},"pageSize":20,"pageNumber":0,"offset":0,"unpaged":false,"paged":true},"totalPages":1,"totalElements":2,"last":true,"first":true,"sort":{"unsorted":true,"sorted":false,"empty":true},"numberOfElements":2,"size":20,"number":0,"empty":false}
nowMTDeatail: {"conference":{"id":"3abcb72c-920e-4043-84f9-ab91cbb9bd1a","legacyId":309,"subject":"019网络中心1调试","creatorId":"e3198616-3517-446e-a974-920443767d24","username":"019网络中心1","accountName":"019-1","chairmanPassword":"099542","guestPassword":"211678","scheduleStartTime":"2023-08-09 07:01:44 UTC","conferenceTimeType":"INSTANT_CONFERENCE","duration":60,"category":"BASE","stage":"ONLINE","organizationName":"中国科学院","active":true,"securityLevel":"PUBLIC","showSecurityLevel":true,"status":"APPROVED_COMPLETED","shareFlow":false},"multiConferenceService":{"conferencePolicySetting":{"language":1,"timeZoneId":"58","autoExtend":false,"autoEnd":false,"autoMute":false,"voiceActive":false,"displaySubjectAsCallerDisplayInfo":true,"releaseParticipantRes":true,"maxParticipantNum":500,"auxMediaNoControl":false},"conferenceCapabilitySetting":{"rate":7680,"mediaEncrypt":2,"audioProtocol":6,"videoProtocol":8,"videoResolution":30,"dataConfProtocol":1,"reserveResource":0,"enableDataConf":false,"enableHdRealTime":false,"type":"AVC","enableRecord":false,"enableLiveBroadcast":false,"autoRecord":false,"audioRecord":false,"amcRecord":true,"enableCheckIn":false,"checkInDuration":10,"previewImage":false,"vdc":false},"accessCode":"9942488","mainMcuName":"MCU1","mainServiceZoneName":"Default","mainServiceZoneId":"8ab9e3c4-69ce-04e5-0169-ce058e5d1213","chairmanLink":"200.1.26.50/conf-portal#/?uuid=3abcb72c-920e-4043-84f9-ab91cbb9bd1a1f9a897e604f9a85e5420926a07c06038752f9eedab4fb5a749b7e203ee73da8&isdataconf=2","guestLink":"200.1.26.50/conf-portal#/?uuid=3abcb72c-920e-4043-84f9-ab91cbb9bd1ad438c03718ab8783f74d8d0f5afc3388489b15df39ae2f2b47bebfaf7fea9c7a&isdataconf=3"},"checkInService":{"enableCheckIn":false,"checkInDuration":10},"subtitleService":{"enableSubtitle":false,"srcLang":"CHINESE","supLanguageList":["CHINESE"],"subscribePath":"/topic/conferences/3abcb72c-920e-4043-84f9-ab91cbb9bd1a/subtitle"},"confPresetParam":{"presetMultiPics":[],"presetMultiPicRollInfos":[],"presetSiteMultiPicRollInfos":[]},"participants":[{"id":"6feafa86-ff66-411c-85c5-b96f00ed94df","uri":"010011","name":"院机关 重任局","terminalType":"CloudLink_Box_600M","ipProtocolType":1,"dialMode":"OUT","encodeType":"ENCODE_DECODE","forward":false,"organizationId":"8ab9e3c4-69ce-04e5-0169-ce058e5d1234","organizationName":"中国科学院","rate":7680,"voice":false,"audioProtocol":6,"videoProtocol":8,"videoResolution":30,"dataConfProtocol":1,"serviceZoneId":"8ab9e3c4-69ce-04e5-0169-ce058e5d1213","serviceZoneName":"Default","mcuId":"6bc7af17-4396-43e7-a16e-bdbea51ffecb","mcuName":"MCU1","mainParticipant":false,"preChairman":false,"securityLevel":"CONFIDENTAIL","notEncodeSiteName":false,"disableAux":false,"notAudioMixing":false,"notJoinAutoMultiPic":false,"lockVideoSrc":false,"notDisplay":false,"terminalUserId":"c3837b01-cee7-4016-a612-fc2eb12de96d","terminalUserName":"011(院机关 重任局)","terminalUserSecurityLevel":"IMPORTANT","thirdRoom":false,"loginSmcName":"010011","supportedAmc":false,"defaultParticipantId":"f0976527-5a8d-46a3-b02b-ee9493b5bb57"},{"id":"11f3f4a9-db46-48ab-b1cf-04838cdd8b59","uri":"010019","name":"计算机网络信息中心","terminalType":"CloudLink_Box_600M","ipProtocolType":1,"dialMode":"OUT","encodeType":"ENCODE_DECODE","forward":false,"organizationId":"8ab9e3c4-69ce-04e5-0169-ce058e5d1234","organizationName":"中国科学院","rate":7680,"voice":false,"audioProtocol":6,"videoProtocol":8,"videoResolution":30,"dataConfProtocol":1,"serviceZoneId":"8ab9e3c4-69ce-04e5-0169-ce058e5d1213","serviceZoneName":"Default","mcuId":"6bc7af17-4396-43e7-a16e-bdbea51ffecb","mcuName":"MCU1","mainParticipant":false,"preChairman":false,"securityLevel":"CONFIDENTAIL","notEncodeSiteName":false,"disableAux":false,"notAudioMixing":false,"notJoinAutoMultiPic":false,"lockVideoSrc":false,"notDisplay":false,"terminalUserId":"2dd85fad-22c8-45e2-abaf-a343ca25f414","terminalUserName":"019(计算机网络信息中心)","terminalUserSecurityLevel":"IMPORTANT","thirdRoom":false,"loginSmcName":"010019","supportedAmc":false,"defaultParticipantId":"f0976527-5a8d-46a3-b02b-ee9493b5bb57"}],"attendees":[],"approves":[],"approveRecords":[{"id":"1d5f85c2-6496-475b-b8d7-7c8f2682f71b","approverId":"e3198616-3517-446e-a974-920443767d24","approverName":"019网络中心1","approverAccountName":"019-1","approvalTime":"2023-08-09 15:01:44:081","status":"CREATE","agree":true},{"id":"bcf1e3cd-955b-4292-b328-c5e72dc8a7ad","approverId":"425be80c-2214-4282-8901-aa9e6f116cba","approverName":"019网络中心2","approverAccountName":"019-2","approvalTime":"2023-08-09 15:02:16:550","status":"DEPARTMENT_LEADER_REVIEW","agree":true},{"id":"575ce57a-caa0-44fd-912e-2523076fb9c6","approverId":"71bd1d47-5e25-48db-8be5-83682d0f4b69","approverName":"019网络中心3","approverAccountName":"019-3","approvalTime":"2023-08-09 15:02:31:824","status":"SUPER_DEPARTMENT_LEADER_REVIEW","agree":true},{"id":"9eeaf9ac-12b9-4672-a59b-99db351a55ea","approverId":"71bd1d47-5e25-48db-8be5-83682d0f4b69","approverName":"019网络中心3","approverAccountName":"019-3","approvalTime":"2023-08-09 15:02:32:824","status":"COMPLETED","agree":true}],"shareFlowFiles":[]}
nowMTDeatailNum: {"content":[{"generalParam":{"id":"6feafa86-ff66-411c-85c5-b96f00ed94df","name":"院机关 重任局","uri":"010011","type":2,"voice":false,"model":0,"encodeType":"ENCODE_DECODE","display":true,"participantMediaType":2,"local":false,"mcuName":"MCU1","securityLevel":"CONFIDENTAIL","notEncodeSiteName":false,"disableAux":false,"notAudioMixing":false,"notJoinAutoMultiPic":false,"lockVideoSrc":false,"notDisplay":false,"belongToCurrentConf":true,"supportedAmc":false},"state":{"participantId":"6feafa86-ff66-411c-85c5-b96f00ed94df","online":false,"calling":false,"dataOnline":false,"pureData":false,"voice":false,"mute":false,"quiet":false,"videoMute":false,"siteVideoMute":false,"important":false,"videoSwitchAttribute":0,"volume":50,"callFailReason":0,"captionSet":false,"handUp":false,"unObserved":false,"terminalIdentityStatus":"UN_AUTHENTICATION","tp":false,"displayCaption":false,"supportAiSubtitleCapability":false,"mcuSwitch":false},"capabilitySet":{"audioMediaCapability":{"mediaDirection":2,"mediaBandWidth":64,"audioProtocol":6},"videoMediaCapability":{"mediaDirection":2,"mediaBandWidth":7680,"videoProtocol":8,"videoResolutionCap":{"videoResolution":30,"frame":30}}},"defaultParticipantId":"f0976527-5a8d-46a3-b02b-ee9493b5bb57"},{"generalParam":{"id":"11f3f4a9-db46-48ab-b1cf-04838cdd8b59","name":"计算机网络信息中心","uri":"010019","type":2,"voice":false,"model":0,"encodeType":"ENCODE_DECODE","display":true,"participantMediaType":2,"local":false,"mcuName":"MCU1","securityLevel":"CONFIDENTAIL","notEncodeSiteName":false,"disableAux":false,"notAudioMixing":false,"notJoinAutoMultiPic":false,"lockVideoSrc":false,"notDisplay":false,"belongToCurrentConf":true,"supportedAmc":false},"state":{"participantId":"11f3f4a9-db46-48ab-b1cf-04838cdd8b59","online":false,"calling":false,"dataOnline":false,"pureData":false,"voice":false,"mute":false,"quiet":false,"videoMute":false,"siteVideoMute":false,"important":false,"videoSwitchAttribute":0,"volume":50,"callFailReason":0,"captionSet":false,"handUp":false,"unObserved":false,"terminalIdentityStatus":"UN_AUTHENTICATION","tp":false,"displayCaption":false,"supportAiSubtitleCapability":false,"mcuSwitch":false},"capabilitySet":{"audioMediaCapability":{"mediaDirection":2,"mediaBandWidth":64,"audioProtocol":6},"videoMediaCapability":{"mediaDirection":2,"mediaBandWidth":7680,"videoProtocol":8,"videoResolutionCap":{"videoResolution":30,"frame":30}}},"defaultParticipantId":"f0976527-5a8d-46a3-b02b-ee9493b5bb57"}],"pageable":{"sort":{"empty":false,"unsorted":false,"sorted":true},"offset":0,"pageSize":20,"pageNumber":0,"unpaged":false,"paged":true},"totalPages":1,"totalElements":2,"last":true,"first":true,"sort":{"empty":false,"unsorted":false,"sorted":true},"size":20,"number":0,"numberOfElements":2,"empty":false}
hisMT: {"content":[{"id":"ed459f61-b3d6-46f8-90af-49af462b5032","accessCode":"9588331","subject":"011重任局1的会议","creatorName":"011重任局1","accountName":"011-1","category":"BASE","scheduleStartTime":"2023-07-28 08:04:00 UTC","scheduleEndTime":"2023-07-28 10:04:04 UTC","mainServiceZoneName":"Default","organizationName":"中国科学院","type":"AVC","securityLevel":"SECRET","showSecurityLevel":true,"status":"APPROVED_COMPLETED","enableRecord":false,"guestPassword":"035492","vodApproves":[],"vodApproveRecords":[],"lastApprovalTime":"2023-07-28 08:11:39 UTC","recordFileExist":false,"deleteApproves":[],"deleteApproveRecords":[],"downloadApproves":[],"downloadApproveRecords":[],"delRecordFile":false,"vdc":false,"cancel":false},{"id":"6e63b748-8e90-4842-a88c-c880cb87b50a","accessCode":"9675127","subject":"011重任局1的会议","creatorName":"011重任局1","accountName":"011-1","category":"BASE","scheduleStartTime":"2023-07-28 07:30:00 UTC","scheduleEndTime":"2023-07-28 08:02:43 UTC","mainServiceZoneName":"Default","organizationName":"中国科学院","type":"AVC","securityLevel":"SECRET","showSecurityLevel":true,"status":"APPROVED_COMPLETED","enableRecord":false,"guestPassword":"162440","vodApproves":[],"vodApproveRecords":[],"lastApprovalTime":"2023-07-28 07:02:04 UTC","recordFileExist":false,"deleteApproves":[],"deleteApproveRecords":[],"downloadApproves":[],"downloadApproveRecords":[],"delRecordFile":false,"vdc":false,"cancel":false},{"id":"d2cc8b62-24a8-480c-a9ec-4da04f626dcd","accessCode":"9403881","subject":"015军工项目管理中心1的会议","creatorName":"015军工项目管理中心1","accountName":"015-1","category":"BASE","scheduleStartTime":"2023-07-28 03:15:36 UTC","scheduleEndTime":"2023-07-28 06:46:57 UTC","mainServiceZoneName":"Default","organizationName":"中国科学院","type":"AVC","securityLevel":"CONFIDENTAIL","showSecurityLevel":true,"status":"APPROVED_COMPLETED","enableRecord":false,"guestPassword":"875186","vodApproves":[],"vodApproveRecords":[],"lastApprovalTime":"2023-07-28 03:17:34 UTC","recordFileExist":false,"deleteApproves":[],"deleteApproveRecords":[],"downloadApproves":[],"downloadApproveRecords":[],"delRecordFile":false,"vdc":false,"cancel":false},{"id":"889a6d1b-f37a-48bc-a4bd-8bbec6af8635","accessCode":"9576153","subject":"015军工项目管理中心1的会议","creatorName":"015军工项目管理中心1","accountName":"015-1","category":"BASE","scheduleStartTime":"2023-07-28 03:00:00 UTC","scheduleEndTime":"2023-07-28 03:12:11 UTC","mainServiceZoneName":"Default","organizationName":"中国科学院","type":"AVC","securityLevel":"CONFIDENTAIL","showSecurityLevel":true,"status":"APPROVED_COMPLETED","enableRecord":false,"guestPassword":"930149","vodApproves":[],"vodApproveRecords":[],"lastApprovalTime":"2023-07-28 02:37:45 UTC","recordFileExist":false,"deleteApproves":[],"deleteApproveRecords":[],"downloadApproves":[],"downloadApproveRecords":[],"delRecordFile":false,"vdc":false,"cancel":false},{"id":"185da807-3105-4c9c-94cb-2779ddfb7674","accessCode":"9428493","subject":"015军工项目管理中心1的会议","creatorName":"015军工项目管理中心1","accountName":"015-1","category":"BASE","scheduleStartTime":"2023-07-28 02:00:00 UTC","scheduleEndTime":"2023-07-28 02:32:01 UTC","mainServiceZoneName":"Default","organizationName":"中国科学院","type":"AVC","securityLevel":"CONFIDENTAIL","showSecurityLevel":true,"status":"APPROVED_COMPLETED","enableRecord":false,"guestPassword":"930149","vodApproves":[],"vodApproveRecords":[],"lastApprovalTime":"2023-07-28 01:06:42 UTC","recordFileExist":false,"deleteApproves":[],"deleteApproveRecords":[],"downloadApproves":[],"downloadApproveRecords":[],"delRecordFile":false,"vdc":false,"cancel":false},{"id":"22750919-3b3c-40f8-b482-029a20a60e30","accessCode":"9313979","subject":"015军工项目管理中心1的会议","creatorName":"015军工项目管理中心1","accountName":"015-1","category":"BASE","scheduleStartTime":"2023-07-28 05:00:00 UTC","scheduleEndTime":"2023-07-28 02:23:05 UTC","mainServiceZoneName":"Default","organizationName":"中国科学院","type":"AVC","securityLevel":"CONFIDENTAIL","showSecurityLevel":true,"status":"CANCELED","enableRecord":false,"guestPassword":"930149","vodApproves":[],"vodApproveRecords":[],"lastApprovalTime":"2023-07-28 02:23:05 UTC","recordFileExist":false,"deleteApproves":[],"deleteApproveRecords":[],"downloadApproves":[],"downloadApproveRecords":[],"delRecordFile":false,"vdc":false,"cancel":false},{"id":"543e298c-311c-45a9-9a93-fdd026ab52b3","accessCode":"9471328","subject":"015军工项目管理中心1的会议","creatorName":"015军工项目管理中心1","accountName":"015-1","category":"BASE","scheduleStartTime":"2023-07-28 05:00:00 UTC","scheduleEndTime":"2023-07-28 01:03:52 UTC","mainServiceZoneName":"Default","organizationName":"中国科学院","type":"AVC","securityLevel":"CONFIDENTAIL","showSecurityLevel":true,"status":"CANCELED","enableRecord":false,"guestPassword":"650807","vodApproves":[],"vodApproveRecords":[],"lastApprovalTime":"2023-07-28 01:03:52 UTC","recordFileExist":false,"deleteApproves":[],"deleteApproveRecords":[],"downloadApproves":[],"downloadApproveRecords":[],"delRecordFile":false,"vdc":false,"cancel":false},{"id":"b823af9d-49ba-41fb-bb27-f1b47365eddb","accessCode":"9546113","subject":"015军工项目管理中心1的会议","creatorName":"015军工项目管理中心1","accountName":"015-1","category":"BASE","scheduleStartTime":"2023-07-28 05:00:00 UTC","scheduleEndTime":"2023-07-27 02:53:21 UTC","mainServiceZoneName":"Default","organizationName":"中国科学院","type":"AVC","securityLevel":"PUBLIC","showSecurityLevel":true,"status":"CANCELED","enableRecord":false,"guestPassword":"613907","vodApproves":[],"vodApproveRecords":[],"lastApprovalTime":"2023-07-27 02:53:21 UTC","recordFileExist":false,"deleteApproves":[],"deleteApproveRecords":[],"downloadApproves":[],"downloadApproveRecords":[],"delRecordFile":false,"vdc":false,"cancel":false},{"id":"32a0ea7b-f4e4-4526-b054-10014bb0aad9","accessCode":"9962560","subject":"015军工项目管理中心1的会议","creatorName":"015军工项目管理中心1","accountName":"015-1","category":"BASE","scheduleStartTime":"2023-07-28 05:00:00 UTC","scheduleEndTime":"2023-07-27 02:51:41 UTC","mainServiceZoneName":"Default","organizationName":"中国科学院","type":"AVC","securityLevel":"CONFIDENTAIL","showSecurityLevel":true,"status":"CANCELED","enableRecord":false,"guestPassword":"924797","vodApproves":[],"vodApproveRecords":[],"lastApprovalTime":"2023-07-27 02:51:41 UTC","recordFileExist":false,"deleteApproves":[],"deleteApproveRecords":[],"downloadApproves":[],"downloadApproveRecords":[],"delRecordFile":false,"vdc":false,"cancel":false},{"id":"f27ecc0f-821c-4a27-83d1-860b59e76cad","accessCode":"9192752","subject":"019网络中心1的会议","creatorName":"019网络中心1","accountName":"019-1","category":"BASE","scheduleStartTime":"2023-07-26 01:45:00 UTC","scheduleEndTime":"2023-07-25 11:07:41 UTC","mainServiceZoneName":"Default","organizationName":"中国科学院","type":"AVC","securityLevel":"INTERNAL","showSecurityLevel":true,"status":"CANCELED","enableRecord":false,"guestPassword":"355682","vodApproves":[],"vodApproveRecords":[],"lastApprovalTime":"2023-07-25 11:07:41 UTC","recordFileExist":false,"deleteApproves":[],"deleteApproveRecords":[],"downloadApproves":[],"downloadApproveRecords":[],"delRecordFile":false,"vdc":false,"cancel":false}],"pageable":{"sort":{"unsorted":true,"sorted":false,"empty":true},"pageSize":10,"pageNumber":0,"offset":0,"unpaged":false,"paged":true},"totalPages":4,"totalElements":38,"last":false,"first":true,
"sort":{"unsorted":true,"sorted":false, "empty": true},"numberOfElements": 38,"size": 10, "number": 0,"empty": false}
hisMTDetail: {"id":"6e63b748-8e90-4842-a88c-c880cb87b50a","accessCode":"9675127","subject":"011重任局1的会议","creatorName":"011重任局1","accountName":"011-1","chairmanPassword":"817161","guestPassword":"162440","scheduleStartTime":"2023-07-28 07:30:00 UTC","scheduleEndTime":"2023-07-28 08:02:43 UTC","duration":120,"category":"BASE","conferencePolicySetting":{"language":1,"timeZoneId":"58","autoExtend":false,"autoEnd":false,"autoMute":false,"voiceActive":false,"displaySubjectAsCallerDisplayInfo":true,"releaseParticipantRes":true,"maxParticipantNum":500,"auxMediaNoControl":false},"conferenceCapabilitySetting":{"rate":7680,"mediaEncrypt":2,"audioProtocol":6,"videoProtocol":8,"videoResolution":30,"dataConfProtocol":1,"reserveResource":0,"enableDataConf":false,"enableHdRealTime":false,"type":"AVC","enableRecord":false,"enableLiveBroadcast":false,"autoRecord":false,"audioRecord":false,"amcRecord":false,"enableCheckIn":false,"checkInDuration":10,"previewImage":false,"vdc":false},"scheduleType":"AUTO","mainServiceZoneName":"Default","mainServiceZoneId":"8ab9e3c4-69ce-04e5-0169-ce058e5d1213","organizationName":"中国科学院","participants":[{"id":"df7311e4-4609-44b2-a16e-623257448f96","uri":"010040","name":"合肥物质科学研究院","preDefinedName":"合肥物质科学研究院","terminalType":"CloudLink_Box_600M","ipProtocolType":1,"dialMode":"OUT","organizationName":"中国科学院","rate":7680,"audioProtocol":6,"videoProtocol":8,"videoResolution":30,"dataConfProtocol":1,"serviceZoneId":"8ab9e3c4-69ce-04e5-0169-ce058e5d1213","serviceZoneName":"Default","mcuId":"6bc7af17-4396-43e7-a16e-bdbea51ffecb","mcuName":"MCU1","mainParticipant":false,"preChairman":false,"securityLevel":"CONFIDENTAIL","vip":false,"terminalUserId":"c15987d1-d69c-4a73-aa63-c0a5ae52c003","terminalUserName":"040(合肥物质科学研究院)","terminalUserSecurityLevel":"IMPORTANT","thirdRoom":false,"loginSmcName":"010040","supportedAmc":true},{"id":"91ee8f14-7b33-4de1-a9fb-5efe79ac633a","uri":"010024","name":"大连化学物理研究所","preDefinedName":"大连化学物理研究所","terminalType":"CloudLink_Box_600M","ipProtocolType":1,"dialMode":"OUT","organizationName":"中国科学院","rate":7680,"audioProtocol":6,"videoProtocol":8,"videoResolution":30,"dataConfProtocol":1,"serviceZoneId":"8ab9e3c4-69ce-04e5-0169-ce058e5d1213","serviceZoneName":"Default","mcuId":"6bc7af17-4396-43e7-a16e-bdbea51ffecb","mcuName":"MCU1","mainParticipant":false,"preChairman":false,"securityLevel":"CONFIDENTAIL","vip":false,"terminalUserId":"0f9d4fee-2e8f-4917-ba36-daf300960ecc","terminalUserName":"024(大连化学物理研究所)","terminalUserSecurityLevel":"IMPORTANT","thirdRoom":false,"loginSmcName":"010024","supportedAmc":true},{"id":"f0a016ae-8fe5-4b35-a307-dae930402424","uri":"010042","name":"兰州化学物理研究所","preDefinedName":"兰州化学物理研究所","terminalType":"CloudLink_Box_600M","ipProtocolType":1,"dialMode":"OUT","organizationName":"中国科学院","rate":7680,"audioProtocol":6,"videoProtocol":8,"videoResolution":30,"dataConfProtocol":1,"serviceZoneId":"8ab9e3c4-69ce-04e5-0169-ce058e5d1213","serviceZoneName":"Default","mcuId":"6bc7af17-4396-43e7-a16e-bdbea51ffecb","mcuName":"MCU1","mainParticipant":false,"preChairman":false,"securityLevel":"CONFIDENTAIL","vip":false,"terminalUserId":"2864927b-0cfd-4ad3-bc4d-ccb052fcd100","terminalUserName":"042(兰州化学物理研究所)","terminalUserSecurityLevel":"IMPORTANT","thirdRoom":false,"loginSmcName":"010042","supportedAmc":true},{"id":"b8ab76cd-50f2-43ab-a56f-43322d3450c1","uri":"010002","name":"上海光学精密机械研究所","preDefinedName":"上海光学精密机械研究所","terminalType":"CloudLink_Box_600M","ipProtocolType":1,"dialMode":"OUT","organizationName":"中国科学院","rate":7680,"audioProtocol":6,"videoProtocol":8,"videoResolution":30,"dataConfProtocol":1,"serviceZoneId":"8ab9e3c4-69ce-04e5-0169-ce058e5d1213","serviceZoneName":"Default","mcuId":"6bc7af17-4396-43e7-a16e-bdbea51ffecb","mcuName":"MCU1","mainParticipant":false,"preChairman":false,"securityLevel":"CONFIDENTAIL","vip":false,"terminalUserId":"9284ff26-06b6-4850-b9c6-72ce20360390","terminalUserName":"002(上海光学精密机械研究所)","terminalUserSecurityLevel":"IMPORTANT","thirdRoom":false,"loginSmcName":"010002","supportedAmc":true}],"attendees":[],"streamService":{"supportLive":false,"supportRecord":false,"autoRecord":false,"audioRecord":false,"amcRecord":false,"supportPushStream":false,"autoPushStream":false,"supportMinutes":false},"subtitleService":{"enableSubtitle":false,"srcLang":"CHINESE"},"confPresetParam":{},"securityLevel":"SECRET","showSecurityLevel":true,"approves":[],"approveRecords":[{"id":"db61375f-26a6-437b-9d2d-6776299b47bc","approverId":"d2c19e2e-b142-4d6d-8b28-2e1f3fe36b0a","approverName":"011重任局1","approverAccountName":"011-1","approvalTime":"2023-07-28 15:00:51:203","status":"CREATE","agree":true},{"id":"4fa8f293-02d2-4d0a-8156-f81d5eb97cdb","approverId":"6de2c954-37de-452b-9865-5b1ceed7617b","approverName":"011重任局2","approverAccountName":"011-2","approvalTime":"2023-07-28 15:01:35:599","status":"DEPARTMENT_LEADER_REVIEW","agree":true},{"id":"262f5dfc-89b2-4992-b452-6d458e1daf0f","approverId":"93ed8118-cc48-458f-becc-71fe990ab11b","approverName":"011重任局3","approverAccountName":"011-3","approvalTime":"2023-07-28 15:02:03:192","status":"SUPER_DEPARTMENT_LEADER_REVIEW","agree":true},{"id":"ac96c58a-afcd-4c84-9105-87ba51be07bf","approverId":"93ed8118-cc48-458f-becc-71fe990ab11b","approverName":"011重任局3","approverAccountName":"011-3","approvalTime":"2023-07-28 15:02:04:192","status":"COMPLETED","agree":true}],"shareFlowFiles":[{"id":"4a94fedd-3845-4c56-8ca8-df72222a5cf2","fileName":"7-1-保密预案(1).docx","filePath":"/opt/SMC/smcuser/smc_share/share_flow/bd2b9bf3-86d7-45f4-9c5f-a42188978010_1690525419452/7-1-保密预案(1).docx","fileSize":14490,"fileUserId":"d2c19e2e-b142-4d6d-8b28-2e1f3fe36b0a","fileUserName":"011-1","fileSecurityLevel":"INTERNAL"}],"status":"APPROVED_COMPLETED","shareFlow":true}
